<svg width="300" height="300" viewBox="0 0 79.374998 79.375002">
  <g  inkscape:label="Layer 1"  inkscape:groupmode="layer"  id="layer1">
    <path    sodipodi:nodetypes="csssssssscssscssssssssssscccc"    inkscape:connector-curvature="0"    id="path5838-4-4-6"
       d="M 26.653958,73.862357 C 12.499811,67.906768 4.7644761,57.238268 3.8674809,42.435402 3.3629092,34.109186 5.4185435,26.456183 9.9149196,19.920921 20.503783,4.5305746 41.860115,-0.19228025 58.025942,9.2815575 c 5.319017,3.1171405 11.72442,10.3084375 14.505201,16.2848815 2.102456,4.518622 2.613596,6.190241 2.629574,14.485332 0.01691,8.762296 -0.40669,9.912656 -3.084884,15.566666 -3.500046,7.389028 -9.911566,13.906558 -17.069708,17.35193 -4.374388,2.105474 -11.657728,2.726856 -14.144885,2.792268 -3.891335,0.102287 -9.58971,0.04256 -14.207282,-1.900278 z M 31.8964,72.141349 C 25.580943,68.364687 21.750827,60.861693 22.91937,54.555626 c 1.488326,-8.031951 7.332772,-12.997369 16.891615,-14.351043 3.36781,-0.476979 7.081844,-1.495257 8.253486,-2.262947 9.506438,-6.228849 11.023833,-17.95248 3.345266,-25.84655 C 47.192739,7.7596285 43.043889,6.3721577 35.787437,7.0498399 24.285985,8.1238168 14.510397,14.923332 9.3252796,25.455789 c -2.6707503,5.425113 -3.1905733,6.8199 -3.1905733,14.644261 0,7.533195 1.6157893,12.773821 4.3983457,17.488782 4.160531,7.04976 9.853235,11.213091 16.617992,13.812591 5.277501,2.027954 7.471294,2.370046 4.745356,0.739926 z m 3.431363,-46.032625 c -0.75073,-1.162171 -1.399643,-2.593041 -0.216682,-4.710343 2.492719,-4.461617 9.78763,-2.879924 9.78763,2.122093 0,4.826705 -6.911086,6.705806 -9.570948,2.58825 z m 9.570948,31.057096 c 0.07859,-2.281707 -2.21268,-5.114849 -5.273394,-4.756992 -3.67386,0.59781 -5.385605,5.034487 -3.633583,7.776275 3.810993,3.932188 8.749481,0.469833 8.906977,-3.019283 z"
       style="stroke-width:0.213902" />
  </g>
</svg>
