<svg  width="300"  height="300"  viewBox="0 0 79.374998 79.375002" >
  <g   inkscape:label="Layer 1"   inkscape:groupmode="layer"   id="layer1">
    <path      inkscape:connector-curvature="0"      id="path5621-6-6-1"
       d="M 30.952751,76.52095 C 24.995914,74.91658 20.226237,69.81741 18.731232,63.455225 c -0.258525,-1.100061 -0.472065,-3.397286 -0.474554,-5.10492 -0.008,-5.550874 1.59564,-9.903448 4.986127,-13.532301 3.105271,-3.323523 6.942463,-4.86109 12.196318,-4.886981 l 3.186103,-0.01556 -1.499872,-0.680583 C 33.081177,37.399757 26.905108,36.874041 23.021642,38.03431 16.356883,40.025606 10.974834,45.513336 9.483563,51.838137 8.98585,53.949383 8.89706,58.511008 9.311383,60.685952 L 9.575219,62.070653 8.376944,60.685952 C 5.713401,57.608113 4.384552,53.972236 4.384552,49.762238 c 0,-5.012467 1.75893,-8.9927 5.711384,-12.923906 4.028997,-4.007395 8.172876,-5.981955 13.094529,-6.239658 3.183548,-0.16671 5.497022,0.275218 8.007099,1.5295 2.065438,1.032097 5.221359,3.806122 6.610284,5.810376 0.486356,0.701762 0.935374,1.122754 0.997782,0.935461 0.177891,-0.533652 -0.828603,-3.364528 -2.036569,-5.728231 -1.593308,-3.11765 -5.580721,-7.038542 -8.709907,-8.564597 -7.551902,-3.682949 -15.841616,-2.362968 -21.880178,3.484101 -1.489026,1.441774 -2.389283,2.122334 -2.389283,1.806224 0,-1.013205 1.312446,-4.766097 2.23624,-6.394454 1.899216,-3.347704 5.713473,-6.339514 9.673216,-7.587485 2.426355,-0.764705 6.949375,-0.905746 9.949475,-0.310309 3.197372,0.634598 7.512276,2.690769 9.735514,4.639259 2.047281,1.79429 3.859819,4.521264 4.754229,7.152713 0.948996,2.792095 0.954997,7.313315 0.01333,10.223204 -0.353559,1.092793 -0.594436,2.035279 -0.535294,2.09442 0.05916,0.05914 0.793529,-0.918149 1.632001,-2.171743 C 45.963142,30.46799 46.104806,21.728392 41.613233,15.012916 38.347522,10.130312 33.35626,7.2766097 26.867837,6.5825367 l -2.307829,-0.246856 1.846276,-0.847294 c 5.482085,-2.515812 11.192935,-2.313895 16.087672,0.568923 1.951958,1.149602 4.847712,3.927116 6.283529,6.0269143 2.221084,3.248224 3.630387,7.834698 3.630387,11.814821 0,6.741569 -3.252802,11.786462 -9.655968,14.975721 l -3.11405,1.551013 2.441245,-0.20974 c 3.360261,-0.288796 5.421056,-0.859184 8.482497,-2.347745 5.028156,-2.444801 9.024194,-7.486204 10.32864,-13.030697 1.228458,-5.221472 -0.203761,-11.48651 -3.64021,-15.9240293 -0.491467,-0.634687 -0.798376,-1.153959 -0.681983,-1.153959 0.116393,0 1.201208,0.514138 2.410641,1.142535 4.25914,2.2128593 7.51741,6.3073993 8.70804,10.9429453 0.71232,2.77347 0.421234,7.617155 -0.641488,10.674174 -1.577683,4.538092 -4.521064,8.450228 -8.187436,10.882115 -5.30417,3.518262 -12.217808,3.514329 -17.912143,-0.01 -1.504673,-0.931281 -1.457533,-0.576256 0.155175,1.168627 4.265918,4.615523 9.308789,6.879099 15.307299,6.870876 8.763692,-0.012 15.621474,-5.187155 18.317694,-13.823206 l 0.67247,-2.154008 0.362869,1.230858 c 1.098213,3.725044 0.641781,8.77047 -1.121264,12.394367 -2.636118,5.418632 -9.660771,9.728046 -16.524889,10.137569 -9.608363,0.573235 -16.7727,-4.736762 -18.54781,-13.746998 -0.46702,-2.370591 -0.535786,-2.515011 -0.803356,-1.688385 -0.160955,0.497156 -0.298351,2.704058 -0.305329,4.904183 -0.01133,3.533261 0.08346,4.290454 0.810822,6.486066 1.434619,4.330463 4.027085,7.752242 7.769909,10.255629 3.5614,2.381973 5.625017,2.954272 10.599743,2.93947 3.896957,-0.01156 4.311191,-0.07212 6.691896,-0.978245 2.852702,-1.085815 2.903753,-0.976977 0.710275,1.514052 -1.656471,1.881191 -4.885936,4.010663 -7.402171,4.880892 -2.959316,1.023445 -7.302735,0.970225 -10.541135,-0.129218 -6.90388,-2.343898 -12.249303,-7.746352 -13.936445,-14.085221 -0.639577,-2.402906 -0.569055,-6.269615 0.157222,-8.620115 0.743012,-2.404753 2.399685,-5.219293 4.094228,-6.95591 0.701919,-0.719253 1.162849,-1.307757 1.024386,-1.307757 -0.749992,0 -4.149815,2.178143 -5.892964,3.775429 -4.455011,4.082205 -6.585216,8.879951 -6.595017,14.853372 -0.0054,3.177056 0.542208,5.60959 1.868702,8.304092 1.67105,3.394333 5.035824,6.807643 8.435067,8.556753 l 1.538567,0.79164 -2.615558,-0.006 c -1.438531,-0.003 -3.339081,-0.20079 -4.223469,-0.43899 z"
       style="stroke-width:0.222253" />
  </g>
</svg>
