<svg   width="300"   height="300"   viewBox="0 0 79.374998 79.375002"   >
  <g inkscape:label="Layer 1" inkscape:groupmode="layer" id="layer1">
    <path    inkscape:connector-curvature="0"    id="path6089-1-9-2"
       d="M 33.37657,74.620642 C 22.680448,72.398138 13.544607,65.440186 8.7171689,55.839779 4.4398015,47.333315 4.0595336,36.129057 7.7419479,27.104892 11.436482,18.05104 19.544196,10.453961 28.734067,7.4348741 39.947016,3.751192 51.631872,5.6230936 60.875585,12.583934 c 6.822304,5.137376 11.267126,12.120731 13.168567,20.689311 0.967405,4.35944 0.878263,10.800209 -0.209114,15.112356 -1.772261,7.027967 -4.944956,12.520957 -9.949491,17.226135 -4.235103,3.981773 -8.816174,6.610821 -14.407785,8.268556 -2.924997,0.86712 -3.885542,0.989794 -8.565461,1.093801 -3.701809,0.08226 -5.945249,-0.02305 -7.535731,-0.353451 z m 12.942404,-2.797147 c 1.762304,-0.359106 4.305745,-1.106085 5.652251,-1.659896 2.445922,-1.006073 5.923067,-2.939592 5.889349,-3.274852 -0.01,-0.09762 -3.735385,-2.920049 -8.278992,-6.27209 -4.543589,-3.352038 -8.468192,-6.294664 -8.721399,-6.539139 -0.303537,-0.293059 -0.597572,-0.337443 -0.863002,-0.130284 -0.221423,0.172817 -2.700437,2.00915 -5.508956,4.080685 -2.808435,2.071578 -6.692248,4.936474 -8.630571,6.36647 -1.938384,1.429995 -3.457396,2.708294 -3.375635,2.840657 0.302311,0.489117 4.341001,2.517871 6.752746,3.392099 5.257349,1.905704 11.468942,2.340667 17.084209,1.19635 z M 22.766223,63.499246 c 0.485998,-1.67603 1.154252,-4.010917 1.485002,-5.188662 0.330811,-1.177745 1.156624,-3.994453 1.835063,-6.259345 2.182091,-7.284397 2.171448,-7.231012 1.542485,-7.756343 C 25.646232,42.639072 9.7889729,30.96717 9.5219219,30.96717 c -0.793839,0 -1.553709,4.71917 -1.538284,9.553717 0.01351,4.20155 0.126395,5.173591 0.938612,8.07125 1.056213,3.768208 2.8306151,7.518249 4.9877801,10.541286 1.62302,2.274434 6.852262,7.41312 7.543819,7.41312 0.257511,0 0.781741,-1.217201 1.312374,-3.047297 z m 40.469156,-1.048439 c 3.523547,-3.58664 6.030522,-7.996264 7.691605,-13.52923 0.792073,-2.638176 0.893563,-3.527726 0.921358,-8.07125 0.02898,-4.757732 -0.396006,-8.379299 -1.1212,-9.552763 -0.311145,-0.503399 -0.235557,-0.555744 -10.847316,7.509477 -4.362227,3.315369 -7.931321,6.230221 -7.931321,6.47742 0,0.247219 1.099205,3.983414 2.442676,8.302628 1.343472,4.319238 2.605932,8.47077 2.805442,9.225609 0.199572,0.754839 0.588259,1.91192 0.863793,2.571297 l 0.500926,1.198887 1.376963,-1.088811 c 0.757354,-0.598903 2.241046,-1.96834 3.297074,-3.043264 z M 32.098414,57.010704 c 3.124756,-2.397377 5.757173,-4.48149 5.849746,-4.631316 0.09259,-0.149824 -1.55319,-1.565495 -3.657283,-3.145877 -4.159578,-3.124236 -4.108978,-3.117417 -4.763034,-0.641374 -0.191505,0.724759 -0.704882,2.429602 -1.140906,3.78854 -1.730809,5.394472 -2.793549,8.920409 -2.793549,9.268578 0,0.245162 0.135853,0.259382 0.411804,0.04312 0.226514,-0.177496 2.968446,-2.284227 6.093222,-4.681668 z m 21.061346,0.744238 c -0.458307,-1.415713 -1.381683,-4.352996 -2.051849,-6.527292 -0.670166,-2.174293 -1.312768,-4.058669 -1.427959,-4.187475 -0.189509,-0.211963 -6.93581,4.682475 -7.065595,5.126108 -0.0795,0.271584 11.029677,8.511868 11.219436,8.322088 0.08763,-0.08766 -0.215619,-1.317694 -0.674033,-2.733429 z M 44.85815,47.306769 c 2.489118,-1.922979 3.796003,-3.148787 3.796003,-3.560716 0,-0.34549 -0.741285,-2.997281 -1.647196,-5.892841 -0.905993,-2.895558 -1.647238,-5.332977 -1.647238,-5.416485 0,-0.08349 -2.436088,-0.151799 -5.413533,-0.151799 -4.872902,0 -5.430145,0.05759 -5.579574,0.576513 -0.09128,0.31707 -0.842506,2.73848 -1.669379,5.380875 -0.826852,2.642394 -1.496123,5.01439 -1.487288,5.271027 0.02237,0.64468 8.579578,6.928119 9.28311,6.81638 0.312994,-0.04971 2.277281,-1.410017 4.365095,-3.022954 z m 11.053021,-8.445136 c 2.622107,-1.999731 5.582818,-4.260486 6.579368,-5.023933 l 1.811946,-1.388064 -8.037822,-0.08831 c -4.42083,-0.04861 -8.108961,-0.01706 -8.195858,0.06966 -0.08688,0.0869 0.459555,2.20213 1.214354,4.700459 1.592833,5.272213 1.623599,5.366053 1.758457,5.366053 0.0561,0 2.24745,-1.636136 4.869555,-3.635868 z M 30.324406,37.967572 c 0.699522,-2.310107 1.346883,-4.533734 1.438518,-4.941421 l 0.166664,-0.741223 h -7.999882 c -4.399937,0 -7.8928,0.111176 -7.761956,0.247073 0.377379,0.391972 12.537089,9.576335 12.720029,9.607601 0.09062,0.01538 0.737088,-1.861903 1.436627,-4.17203 z m 13.893181,-8.383975 c 0.06906,-0.06907 -0.554728,-2.343245 -1.386195,-5.053806 -0.831485,-2.710562 -1.758892,-5.788876 -2.060912,-6.840703 -0.607571,-2.115651 -0.994241,-2.459059 -1.370684,-1.217244 -1.857849,6.128813 -2.473777,8.111248 -3.158518,10.1658 -0.444379,1.333203 -0.743032,2.593312 -0.663702,2.800222 0.0991,0.258655 1.452365,0.359853 4.32936,0.323743 2.301854,-0.02898 4.241653,-0.109016 4.310651,-0.178012 z m 25.850075,-0.105235 c 0,-0.850716 -2.228991,-5.264438 -3.737131,-7.400086 C 63.220474,17.67414 57.657156,12.986487 53.401782,11.184519 52.511859,10.807681 51.487326,10.360848 51.124938,10.191566 48.902828,9.1533547 41.032419,7.8358475 40.661589,8.4399272 c -0.09797,0.159553 0.313223,1.8467048 0.913748,3.7492278 0.600545,1.902503 1.709708,5.460434 2.46488,7.90652 2.651043,8.587559 2.990689,9.508668 3.563544,9.665666 0.305907,0.08386 5.485463,0.15604 11.510041,0.160384 9.058903,0.0067 10.95386,-0.07014 10.95386,-0.443363 z M 34.178867,25.302923 C 38.148749,12.672265 39.333541,8.7068539 39.204215,8.482959 38.783013,7.7537735 31.935991,8.998832 28.228901,10.478658 20.610867,13.51978 14.670628,19.07711 10.914789,26.676789 c -0.623974,1.262501 -1.1344421,2.447833 -1.1344421,2.634059 0,0.225329 3.8511981,0.338564 11.5162161,0.338564 h 11.516173 z"
       style="fill:#151515;stroke-width:0.207888" />
  </g>
</svg>
