<svg  width="300"  height="300"  viewBox="0 0 79.374998 79.375002"  >
  <g   inkscape:label="Layer 1"   inkscape:groupmode="layer"   id="layer1">
    <path   inkscape:connector-curvature="0"   id="path6194-4-9-3"
      d="M 33.31349,77.559279 C 24.988876,76.048687 18.016271,72.240988 12.130055,65.991125 4.4642227,57.851634 0.78354263,46.8671 2.0802827,35.998724 4.2106347,18.143757 17.742982,4.5656707 35.570028,2.3957975 44.509924,1.307621 54.508575,3.9190635 62.030592,9.3067271 69.248326,14.476369 74.634585,22.604402 76.932719,31.79455 77.990999,36.026381 77.870053,45.067639 76.696735,49.43609 71.497481,68.794193 52.582521,81.055839 33.31349,77.559279 Z M 45.938662,73.596426 C 57.772221,71.471385 68.147953,62.532253 72.03048,51.117109 79.014996,30.58183 65.22089,8.8668494 43.594481,6.3526254 33.303913,5.1563197 23.217263,8.6982593 15.804233,16.111314 10.196689,21.718857 6.9245377,28.53457 6.0425417,36.44458 4.2844597,52.211479 13.600127,66.841318 28.968812,72.44917 c 4.449209,1.623461 11.618802,2.108149 16.96985,1.147256 z M 37.962784,43.744265 c -0.548318,-0.272693 -1.327401,-1.170673 -1.731282,-1.995566 -0.60318,-1.231919 -0.655685,-1.725326 -0.294111,-2.762498 0.623977,-1.789909 1.530175,-2.656063 3.08379,-2.947528 2.743441,-0.51468 4.931063,1.31544 4.91465,4.111435 -0.01811,3.110041 -3.153113,4.996383 -5.973047,3.594157 z"
       style="fill:#060606;stroke-width:0.238223" />
  </g>
</svg>
