<svg width="15" height="30" viewBox="0 0 15 30" fill="none" xmlns="http://www.w3.org/2000/svg">
<path d="M10.5525 5.92986H13.7307C13.9263 5.92986 14.1219 5.78317 14.1219 5.53869V0.600155C14.1219 0.40457 13.9752 0.208984 13.7307 0.208984H9.37894C7.2275 0.208984 5.61392 0.746845 4.4893 1.87146C3.46247 2.89829 2.97351 4.26738 2.97351 6.07655V9.59709H0.479794C0.284208 9.59709 0.088623 9.74378 0.088623 9.98826V14.7801C0.088623 14.9757 0.235312 15.1713 0.479794 15.1713H2.97351V28.9601C2.97351 29.1556 3.1202 29.3512 3.36468 29.3512H9.23225C9.42783 29.3512 9.62342 29.2045 9.62342 28.9601V15.1224H13.1929C13.3884 15.1224 13.5351 14.9757 13.5351 14.829C13.5351 14.829 13.9263 12.482 14.073 9.98826C14.073 9.89047 14.0241 9.79268 13.9752 9.69488C13.9263 9.59709 13.8285 9.59709 13.7307 9.59709H9.62342V6.7122C9.62342 6.41883 10.1124 5.92986 10.5525 5.92986ZM9.28115 10.3305H13.3395C13.1929 12.0908 12.9484 13.7533 12.8506 14.3889H9.23225C9.03666 14.3889 8.84108 14.5356 8.84108 14.7801V28.6178H3.75585V14.7801C3.75585 14.5845 3.60916 14.3889 3.36468 14.3889H0.870966V10.3794H3.36468C3.56027 10.3794 3.75585 10.2327 3.75585 9.98826V6.07655V6.02765C3.75585 4.46297 4.19592 3.28946 5.02716 2.40932C6.00509 1.43139 7.47198 0.94243 9.37894 0.94243H13.3884V5.19642H10.5525C9.77011 5.19642 8.88997 5.97876 8.88997 6.7122V9.98826C8.88997 10.1838 9.08556 10.3305 9.28115 10.3305Z" fill="white"/>
</svg>
