<svg width="15" height="15" viewBox="0 0 15 15" fill="none" xmlns="http://www.w3.org/2000/svg">
<path fill-rule="evenodd" clip-rule="evenodd" d="M9.85509 5.79931C9.85509 8.19644 7.91184 10.1397 5.5147 10.1397C3.11757 10.1397 1.17432 8.19644 1.17432 5.79931C1.17432 3.40218 3.11757 1.45892 5.5147 1.45892C7.91184 1.45892 9.85509 3.40218 9.85509 5.79931ZM9.08821 9.76797C8.14183 10.6207 6.88888 11.1397 5.5147 11.1397C2.56529 11.1397 0.174316 8.74873 0.174316 5.79931C0.174316 2.8499 2.56529 0.458923 5.5147 0.458923C8.46412 0.458923 10.8551 2.8499 10.8551 5.79931C10.8551 7.01421 10.4494 8.13436 9.76613 9.03168L14.7836 14.0492L14.0765 14.7563L9.08821 9.76797Z" fill="#3EC28F"/>
</svg>
